@startuml
autonumber
skinparam ParticipantPadding 20
skinparam BoxPadding 10

box CXF
participant ":org.apache.cxf.transport.http.HTTPConduit"
participant ":org.apache.cxf.transport.http.Address"
participant ":org.apache.cxf.transport.https.HttpsURLConnectionFactory"
end box

box JRE
participant "HTTPS :java.net.URL"
participant ":sun.net.www.protocol.https.Handler"
participant ":sun.net.www.protocol.https.HttpsURLConnectionImpl"
participant ":sun.net.www.protocol.https.DelegateHttpsURLConnection"
participant ":sun.net.www.protocol.https.HttpsClient"
end box

activate ":org.apache.cxf.transport.http.HTTPConduit"
[-> ":org.apache.cxf.transport.http.HTTPConduit": prepare
":org.apache.cxf.transport.http.HTTPConduit" -> ":org.apache.cxf.transport.http.HTTPConduit": setupAddress
activate ":org.apache.cxf.transport.http.HTTPConduit"
note over ":org.apache.cxf.transport.http.HTTPConduit"
    HTTPS endpoint
end note
":org.apache.cxf.transport.http.HTTPConduit" -> ":org.apache.cxf.transport.http.Address": new
activate ":org.apache.cxf.transport.http.Address"
":org.apache.cxf.transport.http.Address" -> "HTTPS :java.net.URL": new
activate "HTTPS :java.net.URL"
":org.apache.cxf.transport.http.HTTPConduit" <-- ":org.apache.cxf.transport.http.Address": currentAddress
deactivate ":org.apache.cxf.transport.http.HTTPConduit"
|||
":org.apache.cxf.transport.http.HTTPConduit" -> ":org.apache.cxf.transport.http.HTTPConduit": setupConnection
activate ":org.apache.cxf.transport.http.HTTPConduit"
|||
":org.apache.cxf.transport.http.HTTPConduit" -> ":org.apache.cxf.transport.http.HTTPConduit": createConnection
activate ":org.apache.cxf.transport.http.HTTPConduit"
|||
":org.apache.cxf.transport.http.HTTPConduit" -> ":org.apache.cxf.transport.https.HttpsURLConnectionFactory": createConnection
activate ":org.apache.cxf.transport.https.HttpsURLConnectionFactory"
":org.apache.cxf.transport.https.HttpsURLConnectionFactory" -> "HTTPS :java.net.URL": openConnection

"HTTPS :java.net.URL" -> ":sun.net.www.protocol.https.Handler": openConnection
activate ":sun.net.www.protocol.https.Handler"

":sun.net.www.protocol.https.Handler" -> ":sun.net.www.protocol.https.HttpsURLConnectionImpl": new
activate ":sun.net.www.protocol.https.HttpsURLConnectionImpl"
":sun.net.www.protocol.https.HttpsURLConnectionImpl" -> ":sun.net.www.protocol.https.DelegateHttpsURLConnection": new
activate ":sun.net.www.protocol.https.DelegateHttpsURLConnection"
activate ":sun.net.www.protocol.https.HttpsClient"

alt URL protocol = "https"
":org.apache.cxf.transport.https.HttpsURLConnectionFactory" -> ":org.apache.cxf.transport.https.HttpsURLConnectionFactory": decorateWithTLS
end

":org.apache.cxf.transport.http.HTTPConduit" <-- ":org.apache.cxf.transport.https.HttpsURLConnectionFactory"
deactivate ":org.apache.cxf.transport.http.HTTPConduit"

...

[-> ":org.apache.cxf.transport.http.HTTPConduit": onFirstWrite
":org.apache.cxf.transport.http.HTTPConduit" -> ":org.apache.cxf.transport.http.HTTPConduit": setupWrappedStream
activate ":org.apache.cxf.transport.http.HTTPConduit"
|||
":org.apache.cxf.transport.http.HTTPConduit" -> ":sun.net.www.protocol.https.HttpsURLConnectionImpl": getOutputStream
":sun.net.www.protocol.https.HttpsURLConnectionImpl" -> ":sun.net.www.protocol.https.DelegateHttpsURLConnection": connect
":sun.net.www.protocol.https.DelegateHttpsURLConnection" -> ":sun.net.www.protocol.https.DelegateHttpsURLConnection": plainConnect
activate ":sun.net.www.protocol.https.DelegateHttpsURLConnection"
deactivate ":sun.net.www.protocol.https.DelegateHttpsURLConnection"
":sun.net.www.protocol.https.DelegateHttpsURLConnection" -> ":sun.net.www.protocol.https.HttpsClient": afterConnect
note over ":sun.net.www.protocol.https.HttpsClient" #FFAAAA
    Creates a new SSLSocket and starts
    the SSL handshake using it
end note
":sun.net.www.protocol.https.HttpsClient" ->] : startHandshake
@enduml